…
TBL_1=group_by(TBL_3,`ID`)

Source: local data frame [22 x 3]
Groups: ID [4]

           miRNA logFC    ID
           <chr> <dbl> <chr>
1  hsa-miR-512-1  13.0   ID1
2  hsa-miR-512-2 123.0   ID1
3   hsa-miR-1323  53.0   ID1
4    hsa-miR-498   4.2   ID1
5   hsa-miR-520e  12.0   ID1
6  hsa-miR-515-1   1.0   ID1
7   hsa-miR-519e  56.0   ID1
8   hsa-miR-520f 113.0   ID1
9    hsa-miR-495  11.0   ID2
10  hsa-miR-376c  11.0   ID2
# ... with 12 more rows
…
