…
TBL_3=group_by(TBL_7,`MORPH38`,`value`)

Source: local data frame [27 x 2]
Groups: MORPH38, value [12]

   MORPH38                    value
     <chr>                    <chr>
1    12:10                  nuclear
2    12:10                  nuclear
3    12:10                    child
4    12:10                    child
5    12:10                    child
6    12:10 nuclear and acquaintance
7    12:10 nuclear and acquaintance
8    12:10                notnotnot
9    12:10                  nuclear
10   12:20                  nuclear
# ... with 17 more rows
…
